{% extends "oaiserver/server/base.xml" %}

{% block body %}
<request verb="ListSets"
         {% if incoming.resumptionToken %}
            resumptionToken="{{ incoming.resumptionToken }}"
         {% endif %}>
    http://an.oa.org/OAI-script
</request>
<ListSets>
    {% for set in sets %}
        <set>
            <setSpec>{{ set.spec }}</setSpec>
            <setName>{{ set.name }}</setName>
            {% if set.description %}
                <setDescription>
                    <oai_dc:dc
                        xmlns:oai_dc="http://www.openarchives.org/OAI/2.0/oai_dc/"
                        xmlns:dc="http://purl.org/dc/elements/1.1/"
                        xmlns:xsi="http://www.w3.org/2001/XMLSchema-instance"
                        xsi:schemaLocation="http://www.openarchives.org/OAI/2.0/oai_dc/
                        http://www.openarchives.org/OAI/2.0/oai_dc.xsd">
                        <dc:description>
                            {{ set.description}}
                        </dc:description>
                    </oai_dc:dc>
                </setDescription>
            {% endif %}
        </set>
    {% endfor %}
    <resumptionToken expirationDate="2002-06-01T23:20:00Z"
    completeListSize="6"
    cursor="0">xxx45abttyz</resumptionToken>
</ListSets>
{% endblock %}
